[
  {
    "id": "f7e2fab1-2be6-4491-b473-de3d465ec3e0",
    "username": "adrianmulyawan",
    "email": "adrianmulyawan666@gmail.com",
    "password": "12345678"
  },
  {
    "id": "e8b869fb-f89c-4523-91ab-8aaffad91d65",
    "username": "notWibu",
    "email": "bobbyalfianto@gmail.com",
    "password": "12345678"
  },
  {
    "id": "1391f0ef-feb1-4dd2-a84f-5ae64323e987",
    "username": "geralgerald",
    "email": "geralgerald@gmail.com",
    "password": "12345678"
  }
]